LnL	numparams	d	e	j	AICc	AICc_wt_vBest
DEC	-77.26	2	0.017	1.0e-12	0	158.7	0.60
DEC+J	-77.11	3	0.016	1.0e-12	0.0021	160.5	0.24
DIVALIKE	-79.06	2	0.021	2.0e-09	0	162.3	0.099
DIVALIKE+J	-79.06	3	0.021	1.0e-12	1.0e-05	164.4	0.034
BAYAREALIKE	-94.82	2	0.0068	0.084	0	193.8	1.4e-08
BAYAREALIKE+J	-79.09	3	0.0064	0.0075	0.015	164.5	0.033
