###############################################

# Prior block chosen by BAMMtools::setBAMMpriors

expectedNumberOfShifts = 1.0

lambdaInitPrior = 0.434131504188145

lambdaShiftPrior = 0.178557186631624

muInitPrior = 0.434131504188145

#### End Prior block
######################


